-target:library
-out:"Library/Bee/artifacts/200b0aP.dag/Assembly-CSharp.dll"
-refout:"Library/Bee/artifacts/200b0aP.dag/Assembly-CSharp.ref.dll"
-define:UNITY_2021_3_15
-define:UNITY_2021_3
-define:UNITY_2021
-define:UNITY_5_3_OR_NEWER
-define:UNITY_5_4_OR_NEWER
-define:UNITY_5_5_OR_NEWER
-define:UNITY_5_6_OR_NEWER
-define:UNITY_2017_1_OR_NEWER
-define:UNITY_2017_2_OR_NEWER
-define:UNITY_2017_3_OR_NEWER
-define:UNITY_2017_4_OR_NEWER
-define:UNITY_2018_1_OR_NEWER
-define:UNITY_2018_2_OR_NEWER
-define:UNITY_2018_3_OR_NEWER
-define:UNITY_2018_4_OR_NEWER
-define:UNITY_2019_1_OR_NEWER
-define:UNITY_2019_2_OR_NEWER
-define:UNITY_2019_3_OR_NEWER
-define:UNITY_2019_4_OR_NEWER
-define:UNITY_2020_1_OR_NEWER
-define:UNITY_2020_2_OR_NEWER
-define:UNITY_2020_3_OR_NEWER
-define:UNITY_2021_1_OR_NEWER
-define:UNITY_2021_2_OR_NEWER
-define:UNITY_2021_3_OR_NEWER
-define:PLATFORM_ARCH_64
-define:UNITY_64
-define:USE_SEARCH_ENGINE_API
-define:USE_SEARCH_TABLE
-define:USE_SEARCH_MODULE
-define:USE_PROPERTY_DATABASE
-define:USE_SEARCH_EXTENSION_API
-define:ENABLE_AR
-define:ENABLE_AUDIO
-define:ENABLE_CACHING
-define:ENABLE_CLOTH
-define:ENABLE_MICROPHONE
-define:ENABLE_MULTIPLE_DISPLAYS
-define:ENABLE_PHYSICS
-define:ENABLE_TEXTURE_STREAMING
-define:ENABLE_VIRTUALTEXTURING
-define:ENABLE_UNET
-define:ENABLE_LZMA
-define:ENABLE_UNITYEVENTS
-define:ENABLE_VR
-define:ENABLE_WEBCAM
-define:ENABLE_UNITYWEBREQUEST
-define:ENABLE_WWW
-define:ENABLE_CLOUD_SERVICES
-define:ENABLE_CLOUD_SERVICES_COLLAB
-define:ENABLE_CLOUD_SERVICES_COLLAB_SOFTLOCKS
-define:ENABLE_CLOUD_SERVICES_ADS
-define:ENABLE_CLOUD_SERVICES_USE_WEBREQUEST
-define:ENABLE_CLOUD_SERVICES_CRASH_REPORTING
-define:ENABLE_CLOUD_SERVICES_NATIVE_CRASH_REPORTING
-define:ENABLE_CLOUD_SERVICES_PURCHASING
-define:ENABLE_CLOUD_SERVICES_ANALYTICS
-define:ENABLE_CLOUD_SERVICES_UNET
-define:ENABLE_CLOUD_SERVICES_BUILD
-define:ENABLE_CLOUD_LICENSE
-define:ENABLE_EDITOR_HUB_LICENSE
-define:ENABLE_WEBSOCKET_CLIENT
-define:ENABLE_DIRECTOR_AUDIO
-define:ENABLE_DIRECTOR_TEXTURE
-define:ENABLE_MANAGED_JOBS
-define:ENABLE_MANAGED_TRANSFORM_JOBS
-define:ENABLE_MANAGED_ANIMATION_JOBS
-define:ENABLE_MANAGED_AUDIO_JOBS
-define:ENABLE_MANAGED_UNITYTLS
-define:INCLUDE_DYNAMIC_GI
-define:ENABLE_SCRIPTING_GC_WBARRIERS
-define:PLATFORM_SUPPORTS_MONO
-define:RENDER_SOFTWARE_CURSOR
-define:ENABLE_VIDEO
-define:ENABLE_ACCELERATOR_CLIENT_DEBUGGING
-define:PLATFORM_STANDALONE
-define:TEXTCORE_1_0_OR_NEWER
-define:PLATFORM_STANDALONE_OSX
-define:UNITY_STANDALONE_OSX
-define:UNITY_STANDALONE
-define:ENABLE_GAMECENTER
-define:ENABLE_RUNTIME_GI
-define:ENABLE_MOVIES
-define:ENABLE_NETWORK
-define:ENABLE_CRUNCH_TEXTURE_COMPRESSION
-define:ENABLE_UNITY_GAME_SERVICES_ANALYTICS_SUPPORT
-define:ENABLE_CLUSTER_SYNC
-define:ENABLE_CLUSTERINPUT
-define:ENABLE_SPATIALTRACKING
-define:PLATFORM_UPDATES_TIME_OUTSIDE_OF_PLAYER_LOOP
-define:ENABLE_WEBSOCKET_HOST
-define:ENABLE_MONO
-define:NET_STANDARD_2_0
-define:NET_STANDARD
-define:NET_STANDARD_2_1
-define:NETSTANDARD
-define:NETSTANDARD2_1
-define:ENABLE_CUSTOM_RENDER_TEXTURE
-define:ENABLE_DIRECTOR
-define:ENABLE_LOCALIZATION
-define:ENABLE_SPRITES
-define:ENABLE_TERRAIN
-define:ENABLE_TILEMAP
-define:ENABLE_TIMELINE
-define:ENABLE_LEGACY_INPUT_MANAGER
-define:CROSS_PLATFORM_INPUT
-define:CSHARP_7_OR_LATER
-define:CSHARP_7_3_OR_NEWER
-r:"/Applications/Unity/Hub/2021.3.15f1/Unity.app/Contents/NetStandard/compat/2.1.0/shims/netfx/mscorlib.dll"
-r:"/Applications/Unity/Hub/2021.3.15f1/Unity.app/Contents/NetStandard/compat/2.1.0/shims/netfx/System.ComponentModel.Composition.dll"
-r:"/Applications/Unity/Hub/2021.3.15f1/Unity.app/Contents/NetStandard/compat/2.1.0/shims/netfx/System.Core.dll"
-r:"/Applications/Unity/Hub/2021.3.15f1/Unity.app/Contents/NetStandard/compat/2.1.0/shims/netfx/System.Data.dll"
-r:"/Applications/Unity/Hub/2021.3.15f1/Unity.app/Contents/NetStandard/compat/2.1.0/shims/netfx/System.dll"
-r:"/Applications/Unity/Hub/2021.3.15f1/Unity.app/Contents/NetStandard/compat/2.1.0/shims/netfx/System.Drawing.dll"
-r:"/Applications/Unity/Hub/2021.3.15f1/Unity.app/Contents/NetStandard/compat/2.1.0/shims/netfx/System.IO.Compression.FileSystem.dll"
-r:"/Applications/Unity/Hub/2021.3.15f1/Unity.app/Contents/NetStandard/compat/2.1.0/shims/netfx/System.Net.dll"
-r:"/Applications/Unity/Hub/2021.3.15f1/Unity.app/Contents/NetStandard/compat/2.1.0/shims/netfx/System.Numerics.dll"
-r:"/Applications/Unity/Hub/2021.3.15f1/Unity.app/Contents/NetStandard/compat/2.1.0/shims/netfx/System.Runtime.Serialization.dll"
-r:"/Applications/Unity/Hub/2021.3.15f1/Unity.app/Contents/NetStandard/compat/2.1.0/shims/netfx/System.ServiceModel.Web.dll"
-r:"/Applications/Unity/Hub/2021.3.15f1/Unity.app/Contents/NetStandard/compat/2.1.0/shims/netfx/System.Transactions.dll"
-r:"/Applications/Unity/Hub/2021.3.15f1/Unity.app/Contents/NetStandard/compat/2.1.0/shims/netfx/System.Web.dll"
-r:"/Applications/Unity/Hub/2021.3.15f1/Unity.app/Contents/NetStandard/compat/2.1.0/shims/netfx/System.Windows.dll"
-r:"/Applications/Unity/Hub/2021.3.15f1/Unity.app/Contents/NetStandard/compat/2.1.0/shims/netfx/System.Xml.dll"
-r:"/Applications/Unity/Hub/2021.3.15f1/Unity.app/Contents/NetStandard/compat/2.1.0/shims/netfx/System.Xml.Linq.dll"
-r:"/Applications/Unity/Hub/2021.3.15f1/Unity.app/Contents/NetStandard/compat/2.1.0/shims/netfx/System.Xml.Serialization.dll"
-r:"/Applications/Unity/Hub/2021.3.15f1/Unity.app/Contents/NetStandard/compat/2.1.0/shims/netstandard/Microsoft.Win32.Primitives.dll"
-r:"/Applications/Unity/Hub/2021.3.15f1/Unity.app/Contents/NetStandard/compat/2.1.0/shims/netstandard/System.AppContext.dll"
-r:"/Applications/Unity/Hub/2021.3.15f1/Unity.app/Contents/NetStandard/compat/2.1.0/shims/netstandard/System.Buffers.dll"
-r:"/Applications/Unity/Hub/2021.3.15f1/Unity.app/Contents/NetStandard/compat/2.1.0/shims/netstandard/System.Collections.Concurrent.dll"
-r:"/Applications/Unity/Hub/2021.3.15f1/Unity.app/Contents/NetStandard/compat/2.1.0/shims/netstandard/System.Collections.dll"
-r:"/Applications/Unity/Hub/2021.3.15f1/Unity.app/Contents/NetStandard/compat/2.1.0/shims/netstandard/System.Collections.NonGeneric.dll"
-r:"/Applications/Unity/Hub/2021.3.15f1/Unity.app/Contents/NetStandard/compat/2.1.0/shims/netstandard/System.Collections.Specialized.dll"
-r:"/Applications/Unity/Hub/2021.3.15f1/Unity.app/Contents/NetStandard/compat/2.1.0/shims/netstandard/System.ComponentModel.dll"
-r:"/Applications/Unity/Hub/2021.3.15f1/Unity.app/Contents/NetStandard/compat/2.1.0/shims/netstandard/System.ComponentModel.EventBasedAsync.dll"
-r:"/Applications/Unity/Hub/2021.3.15f1/Unity.app/Contents/NetStandard/compat/2.1.0/shims/netstandard/System.ComponentModel.Primitives.dll"
-r:"/Applications/Unity/Hub/2021.3.15f1/Unity.app/Contents/NetStandard/compat/2.1.0/shims/netstandard/System.ComponentModel.TypeConverter.dll"
-r:"/Applications/Unity/Hub/2021.3.15f1/Unity.app/Contents/NetStandard/compat/2.1.0/shims/netstandard/System.Console.dll"
-r:"/Applications/Unity/Hub/2021.3.15f1/Unity.app/Contents/NetStandard/compat/2.1.0/shims/netstandard/System.Data.Common.dll"
-r:"/Applications/Unity/Hub/2021.3.15f1/Unity.app/Contents/NetStandard/compat/2.1.0/shims/netstandard/System.Diagnostics.Contracts.dll"
-r:"/Applications/Unity/Hub/2021.3.15f1/Unity.app/Contents/NetStandard/compat/2.1.0/shims/netstandard/System.Diagnostics.Debug.dll"
-r:"/Applications/Unity/Hub/2021.3.15f1/Unity.app/Contents/NetStandard/compat/2.1.0/shims/netstandard/System.Diagnostics.FileVersionInfo.dll"
-r:"/Applications/Unity/Hub/2021.3.15f1/Unity.app/Contents/NetStandard/compat/2.1.0/shims/netstandard/System.Diagnostics.Process.dll"
-r:"/Applications/Unity/Hub/2021.3.15f1/Unity.app/Contents/NetStandard/compat/2.1.0/shims/netstandard/System.Diagnostics.StackTrace.dll"
-r:"/Applications/Unity/Hub/2021.3.15f1/Unity.app/Contents/NetStandard/compat/2.1.0/shims/netstandard/System.Diagnostics.TextWriterTraceListener.dll"
-r:"/Applications/Unity/Hub/2021.3.15f1/Unity.app/Contents/NetStandard/compat/2.1.0/shims/netstandard/System.Diagnostics.Tools.dll"
-r:"/Applications/Unity/Hub/2021.3.15f1/Unity.app/Contents/NetStandard/compat/2.1.0/shims/netstandard/System.Diagnostics.TraceSource.dll"
-r:"/Applications/Unity/Hub/2021.3.15f1/Unity.app/Contents/NetStandard/compat/2.1.0/shims/netstandard/System.Diagnostics.Tracing.dll"
-r:"/Applications/Unity/Hub/2021.3.15f1/Unity.app/Contents/NetStandard/compat/2.1.0/shims/netstandard/System.Drawing.Primitives.dll"
-r:"/Applications/Unity/Hub/2021.3.15f1/Unity.app/Contents/NetStandard/compat/2.1.0/shims/netstandard/System.Dynamic.Runtime.dll"
-r:"/Applications/Unity/Hub/2021.3.15f1/Unity.app/Contents/NetStandard/compat/2.1.0/shims/netstandard/System.Globalization.Calendars.dll"
-r:"/Applications/Unity/Hub/2021.3.15f1/Unity.app/Contents/NetStandard/compat/2.1.0/shims/netstandard/System.Globalization.dll"
-r:"/Applications/Unity/Hub/2021.3.15f1/Unity.app/Contents/NetStandard/compat/2.1.0/shims/netstandard/System.Globalization.Extensions.dll"
-r:"/Applications/Unity/Hub/2021.3.15f1/Unity.app/Contents/NetStandard/compat/2.1.0/shims/netstandard/System.IO.Compression.dll"
-r:"/Applications/Unity/Hub/2021.3.15f1/Unity.app/Contents/NetStandard/compat/2.1.0/shims/netstandard/System.IO.Compression.ZipFile.dll"
-r:"/Applications/Unity/Hub/2021.3.15f1/Unity.app/Contents/NetStandard/compat/2.1.0/shims/netstandard/System.IO.dll"
-r:"/Applications/Unity/Hub/2021.3.15f1/Unity.app/Contents/NetStandard/compat/2.1.0/shims/netstandard/System.IO.FileSystem.dll"
-r:"/Applications/Unity/Hub/2021.3.15f1/Unity.app/Contents/NetStandard/compat/2.1.0/shims/netstandard/System.IO.FileSystem.DriveInfo.dll"
-r:"/Applications/Unity/Hub/2021.3.15f1/Unity.app/Contents/NetStandard/compat/2.1.0/shims/netstandard/System.IO.FileSystem.Primitives.dll"
-r:"/Applications/Unity/Hub/2021.3.15f1/Unity.app/Contents/NetStandard/compat/2.1.0/shims/netstandard/System.IO.FileSystem.Watcher.dll"
-r:"/Applications/Unity/Hub/2021.3.15f1/Unity.app/Contents/NetStandard/compat/2.1.0/shims/netstandard/System.IO.IsolatedStorage.dll"
-r:"/Applications/Unity/Hub/2021.3.15f1/Unity.app/Contents/NetStandard/compat/2.1.0/shims/netstandard/System.IO.MemoryMappedFiles.dll"
-r:"/Applications/Unity/Hub/2021.3.15f1/Unity.app/Contents/NetStandard/compat/2.1.0/shims/netstandard/System.IO.Pipes.dll"
-r:"/Applications/Unity/Hub/2021.3.15f1/Unity.app/Contents/NetStandard/compat/2.1.0/shims/netstandard/System.IO.UnmanagedMemoryStream.dll"
-r:"/Applications/Unity/Hub/2021.3.15f1/Unity.app/Contents/NetStandard/compat/2.1.0/shims/netstandard/System.Linq.dll"
-r:"/Applications/Unity/Hub/2021.3.15f1/Unity.app/Contents/NetStandard/compat/2.1.0/shims/netstandard/System.Linq.Expressions.dll"
-r:"/Applications/Unity/Hub/2021.3.15f1/Unity.app/Contents/NetStandard/compat/2.1.0/shims/netstandard/System.Linq.Parallel.dll"
-r:"/Applications/Unity/Hub/2021.3.15f1/Unity.app/Contents/NetStandard/compat/2.1.0/shims/netstandard/System.Linq.Queryable.dll"
-r:"/Applications/Unity/Hub/2021.3.15f1/Unity.app/Contents/NetStandard/compat/2.1.0/shims/netstandard/System.Memory.dll"
-r:"/Applications/Unity/Hub/2021.3.15f1/Unity.app/Contents/NetStandard/compat/2.1.0/shims/netstandard/System.Net.Http.dll"
-r:"/Applications/Unity/Hub/2021.3.15f1/Unity.app/Contents/NetStandard/compat/2.1.0/shims/netstandard/System.Net.NameResolution.dll"
-r:"/Applications/Unity/Hub/2021.3.15f1/Unity.app/Contents/NetStandard/compat/2.1.0/shims/netstandard/System.Net.NetworkInformation.dll"
-r:"/Applications/Unity/Hub/2021.3.15f1/Unity.app/Contents/NetStandard/compat/2.1.0/shims/netstandard/System.Net.Ping.dll"
-r:"/Applications/Unity/Hub/2021.3.15f1/Unity.app/Contents/NetStandard/compat/2.1.0/shims/netstandard/System.Net.Primitives.dll"
-r:"/Applications/Unity/Hub/2021.3.15f1/Unity.app/Contents/NetStandard/compat/2.1.0/shims/netstandard/System.Net.Requests.dll"
-r:"/Applications/Unity/Hub/2021.3.15f1/Unity.app/Contents/NetStandard/compat/2.1.0/shims/netstandard/System.Net.Security.dll"
-r:"/Applications/Unity/Hub/2021.3.15f1/Unity.app/Contents/NetStandard/compat/2.1.0/shims/netstandard/System.Net.Sockets.dll"
-r:"/Applications/Unity/Hub/2021.3.15f1/Unity.app/Contents/NetStandard/compat/2.1.0/shims/netstandard/System.Net.WebHeaderCollection.dll"
-r:"/Applications/Unity/Hub/2021.3.15f1/Unity.app/Contents/NetStandard/compat/2.1.0/shims/netstandard/System.Net.WebSockets.Client.dll"
-r:"/Applications/Unity/Hub/2021.3.15f1/Unity.app/Contents/NetStandard/compat/2.1.0/shims/netstandard/System.Net.WebSockets.dll"
-r:"/Applications/Unity/Hub/2021.3.15f1/Unity.app/Contents/NetStandard/compat/2.1.0/shims/netstandard/System.Numerics.Vectors.dll"
-r:"/Applications/Unity/Hub/2021.3.15f1/Unity.app/Contents/NetStandard/compat/2.1.0/shims/netstandard/System.ObjectModel.dll"
-r:"/Applications/Unity/Hub/2021.3.15f1/Unity.app/Contents/NetStandard/compat/2.1.0/shims/netstandard/System.Reflection.DispatchProxy.dll"
-r:"/Applications/Unity/Hub/2021.3.15f1/Unity.app/Contents/NetStandard/compat/2.1.0/shims/netstandard/System.Reflection.dll"
-r:"/Applications/Unity/Hub/2021.3.15f1/Unity.app/Contents/NetStandard/compat/2.1.0/shims/netstandard/System.Reflection.Emit.dll"
-r:"/Applications/Unity/Hub/2021.3.15f1/Unity.app/Contents/NetStandard/compat/2.1.0/shims/netstandard/System.Reflection.Emit.ILGeneration.dll"
-r:"/Applications/Unity/Hub/2021.3.15f1/Unity.app/Contents/NetStandard/compat/2.1.0/shims/netstandard/System.Reflection.Emit.Lightweight.dll"
-r:"/Applications/Unity/Hub/2021.3.15f1/Unity.app/Contents/NetStandard/compat/2.1.0/shims/netstandard/System.Reflection.Extensions.dll"
-r:"/Applications/Unity/Hub/2021.3.15f1/Unity.app/Contents/NetStandard/compat/2.1.0/shims/netstandard/System.Reflection.Primitives.dll"
-r:"/Applications/Unity/Hub/2021.3.15f1/Unity.app/Contents/NetStandard/compat/2.1.0/shims/netstandard/System.Resources.Reader.dll"
-r:"/Applications/Unity/Hub/2021.3.15f1/Unity.app/Contents/NetStandard/compat/2.1.0/shims/netstandard/System.Resources.ResourceManager.dll"
-r:"/Applications/Unity/Hub/2021.3.15f1/Unity.app/Contents/NetStandard/compat/2.1.0/shims/netstandard/System.Resources.Writer.dll"
-r:"/Applications/Unity/Hub/2021.3.15f1/Unity.app/Contents/NetStandard/compat/2.1.0/shims/netstandard/System.Runtime.CompilerServices.VisualC.dll"
-r:"/Applications/Unity/Hub/2021.3.15f1/Unity.app/Contents/NetStandard/compat/2.1.0/shims/netstandard/System.Runtime.dll"
-r:"/Applications/Unity/Hub/2021.3.15f1/Unity.app/Contents/NetStandard/compat/2.1.0/shims/netstandard/System.Runtime.Extensions.dll"
-r:"/Applications/Unity/Hub/2021.3.15f1/Unity.app/Contents/NetStandard/compat/2.1.0/shims/netstandard/System.Runtime.Handles.dll"
-r:"/Applications/Unity/Hub/2021.3.15f1/Unity.app/Contents/NetStandard/compat/2.1.0/shims/netstandard/System.Runtime.InteropServices.dll"
-r:"/Applications/Unity/Hub/2021.3.15f1/Unity.app/Contents/NetStandard/compat/2.1.0/shims/netstandard/System.Runtime.InteropServices.RuntimeInformation.dll"
-r:"/Applications/Unity/Hub/2021.3.15f1/Unity.app/Contents/NetStandard/compat/2.1.0/shims/netstandard/System.Runtime.Numerics.dll"
-r:"/Applications/Unity/Hub/2021.3.15f1/Unity.app/Contents/NetStandard/compat/2.1.0/shims/netstandard/System.Runtime.Serialization.Formatters.dll"
-r:"/Applications/Unity/Hub/2021.3.15f1/Unity.app/Contents/NetStandard/compat/2.1.0/shims/netstandard/System.Runtime.Serialization.Json.dll"
-r:"/Applications/Unity/Hub/2021.3.15f1/Unity.app/Contents/NetStandard/compat/2.1.0/shims/netstandard/System.Runtime.Serialization.Primitives.dll"
-r:"/Applications/Unity/Hub/2021.3.15f1/Unity.app/Contents/NetStandard/compat/2.1.0/shims/netstandard/System.Runtime.Serialization.Xml.dll"
-r:"/Applications/Unity/Hub/2021.3.15f1/Unity.app/Contents/NetStandard/compat/2.1.0/shims/netstandard/System.Security.Claims.dll"
-r:"/Applications/Unity/Hub/2021.3.15f1/Unity.app/Contents/NetStandard/compat/2.1.0/shims/netstandard/System.Security.Cryptography.Algorithms.dll"
-r:"/Applications/Unity/Hub/2021.3.15f1/Unity.app/Contents/NetStandard/compat/2.1.0/shims/netstandard/System.Security.Cryptography.Csp.dll"
-r:"/Applications/Unity/Hub/2021.3.15f1/Unity.app/Contents/NetStandard/compat/2.1.0/shims/netstandard/System.Security.Cryptography.Encoding.dll"
-r:"/Applications/Unity/Hub/2021.3.15f1/Unity.app/Contents/NetStandard/compat/2.1.0/shims/netstandard/System.Security.Cryptography.Primitives.dll"
-r:"/Applications/Unity/Hub/2021.3.15f1/Unity.app/Contents/NetStandard/compat/2.1.0/shims/netstandard/System.Security.Cryptography.X509Certificates.dll"
-r:"/Applications/Unity/Hub/2021.3.15f1/Unity.app/Contents/NetStandard/compat/2.1.0/shims/netstandard/System.Security.Principal.dll"
-r:"/Applications/Unity/Hub/2021.3.15f1/Unity.app/Contents/NetStandard/compat/2.1.0/shims/netstandard/System.Security.SecureString.dll"
-r:"/Applications/Unity/Hub/2021.3.15f1/Unity.app/Contents/NetStandard/compat/2.1.0/shims/netstandard/System.Text.Encoding.dll"
-r:"/Applications/Unity/Hub/2021.3.15f1/Unity.app/Contents/NetStandard/compat/2.1.0/shims/netstandard/System.Text.Encoding.Extensions.dll"
-r:"/Applications/Unity/Hub/2021.3.15f1/Unity.app/Contents/NetStandard/compat/2.1.0/shims/netstandard/System.Text.RegularExpressions.dll"
-r:"/Applications/Unity/Hub/2021.3.15f1/Unity.app/Contents/NetStandard/compat/2.1.0/shims/netstandard/System.Threading.dll"
-r:"/Applications/Unity/Hub/2021.3.15f1/Unity.app/Contents/NetStandard/compat/2.1.0/shims/netstandard/System.Threading.Overlapped.dll"
-r:"/Applications/Unity/Hub/2021.3.15f1/Unity.app/Contents/NetStandard/compat/2.1.0/shims/netstandard/System.Threading.Tasks.dll"
-r:"/Applications/Unity/Hub/2021.3.15f1/Unity.app/Contents/NetStandard/compat/2.1.0/shims/netstandard/System.Threading.Tasks.Extensions.dll"
-r:"/Applications/Unity/Hub/2021.3.15f1/Unity.app/Contents/NetStandard/compat/2.1.0/shims/netstandard/System.Threading.Tasks.Parallel.dll"
-r:"/Applications/Unity/Hub/2021.3.15f1/Unity.app/Contents/NetStandard/compat/2.1.0/shims/netstandard/System.Threading.Thread.dll"
-r:"/Applications/Unity/Hub/2021.3.15f1/Unity.app/Contents/NetStandard/compat/2.1.0/shims/netstandard/System.Threading.ThreadPool.dll"
-r:"/Applications/Unity/Hub/2021.3.15f1/Unity.app/Contents/NetStandard/compat/2.1.0/shims/netstandard/System.Threading.Timer.dll"
-r:"/Applications/Unity/Hub/2021.3.15f1/Unity.app/Contents/NetStandard/compat/2.1.0/shims/netstandard/System.ValueTuple.dll"
-r:"/Applications/Unity/Hub/2021.3.15f1/Unity.app/Contents/NetStandard/compat/2.1.0/shims/netstandard/System.Xml.ReaderWriter.dll"
-r:"/Applications/Unity/Hub/2021.3.15f1/Unity.app/Contents/NetStandard/compat/2.1.0/shims/netstandard/System.Xml.XDocument.dll"
-r:"/Applications/Unity/Hub/2021.3.15f1/Unity.app/Contents/NetStandard/compat/2.1.0/shims/netstandard/System.Xml.XmlDocument.dll"
-r:"/Applications/Unity/Hub/2021.3.15f1/Unity.app/Contents/NetStandard/compat/2.1.0/shims/netstandard/System.Xml.XmlSerializer.dll"
-r:"/Applications/Unity/Hub/2021.3.15f1/Unity.app/Contents/NetStandard/compat/2.1.0/shims/netstandard/System.Xml.XPath.dll"
-r:"/Applications/Unity/Hub/2021.3.15f1/Unity.app/Contents/NetStandard/compat/2.1.0/shims/netstandard/System.Xml.XPath.XDocument.dll"
-r:"/Applications/Unity/Hub/2021.3.15f1/Unity.app/Contents/NetStandard/Extensions/2.0.0/System.Runtime.InteropServices.WindowsRuntime.dll"
-r:"/Applications/Unity/Hub/2021.3.15f1/Unity.app/Contents/NetStandard/ref/2.1.0/netstandard.dll"
-r:"/Applications/Unity/Hub/2021.3.15f1/Unity.app/Contents/PlaybackEngines/MacStandaloneSupport/Variations/mono/Managed/UnityEngine.AccessibilityModule.dll"
-r:"/Applications/Unity/Hub/2021.3.15f1/Unity.app/Contents/PlaybackEngines/MacStandaloneSupport/Variations/mono/Managed/UnityEngine.AIModule.dll"
-r:"/Applications/Unity/Hub/2021.3.15f1/Unity.app/Contents/PlaybackEngines/MacStandaloneSupport/Variations/mono/Managed/UnityEngine.AndroidJNIModule.dll"
-r:"/Applications/Unity/Hub/2021.3.15f1/Unity.app/Contents/PlaybackEngines/MacStandaloneSupport/Variations/mono/Managed/UnityEngine.AnimationModule.dll"
-r:"/Applications/Unity/Hub/2021.3.15f1/Unity.app/Contents/PlaybackEngines/MacStandaloneSupport/Variations/mono/Managed/UnityEngine.ARModule.dll"
-r:"/Applications/Unity/Hub/2021.3.15f1/Unity.app/Contents/PlaybackEngines/MacStandaloneSupport/Variations/mono/Managed/UnityEngine.AssetBundleModule.dll"
-r:"/Applications/Unity/Hub/2021.3.15f1/Unity.app/Contents/PlaybackEngines/MacStandaloneSupport/Variations/mono/Managed/UnityEngine.AudioModule.dll"
-r:"/Applications/Unity/Hub/2021.3.15f1/Unity.app/Contents/PlaybackEngines/MacStandaloneSupport/Variations/mono/Managed/UnityEngine.ClothModule.dll"
-r:"/Applications/Unity/Hub/2021.3.15f1/Unity.app/Contents/PlaybackEngines/MacStandaloneSupport/Variations/mono/Managed/UnityEngine.ClusterInputModule.dll"
-r:"/Applications/Unity/Hub/2021.3.15f1/Unity.app/Contents/PlaybackEngines/MacStandaloneSupport/Variations/mono/Managed/UnityEngine.ClusterRendererModule.dll"
-r:"/Applications/Unity/Hub/2021.3.15f1/Unity.app/Contents/PlaybackEngines/MacStandaloneSupport/Variations/mono/Managed/UnityEngine.CoreModule.dll"
-r:"/Applications/Unity/Hub/2021.3.15f1/Unity.app/Contents/PlaybackEngines/MacStandaloneSupport/Variations/mono/Managed/UnityEngine.CrashReportingModule.dll"
-r:"/Applications/Unity/Hub/2021.3.15f1/Unity.app/Contents/PlaybackEngines/MacStandaloneSupport/Variations/mono/Managed/UnityEngine.DirectorModule.dll"
-r:"/Applications/Unity/Hub/2021.3.15f1/Unity.app/Contents/PlaybackEngines/MacStandaloneSupport/Variations/mono/Managed/UnityEngine.dll"
-r:"/Applications/Unity/Hub/2021.3.15f1/Unity.app/Contents/PlaybackEngines/MacStandaloneSupport/Variations/mono/Managed/UnityEngine.DSPGraphModule.dll"
-r:"/Applications/Unity/Hub/2021.3.15f1/Unity.app/Contents/PlaybackEngines/MacStandaloneSupport/Variations/mono/Managed/UnityEngine.GameCenterModule.dll"
-r:"/Applications/Unity/Hub/2021.3.15f1/Unity.app/Contents/PlaybackEngines/MacStandaloneSupport/Variations/mono/Managed/UnityEngine.GIModule.dll"
-r:"/Applications/Unity/Hub/2021.3.15f1/Unity.app/Contents/PlaybackEngines/MacStandaloneSupport/Variations/mono/Managed/UnityEngine.GridModule.dll"
-r:"/Applications/Unity/Hub/2021.3.15f1/Unity.app/Contents/PlaybackEngines/MacStandaloneSupport/Variations/mono/Managed/UnityEngine.HotReloadModule.dll"
-r:"/Applications/Unity/Hub/2021.3.15f1/Unity.app/Contents/PlaybackEngines/MacStandaloneSupport/Variations/mono/Managed/UnityEngine.ImageConversionModule.dll"
-r:"/Applications/Unity/Hub/2021.3.15f1/Unity.app/Contents/PlaybackEngines/MacStandaloneSupport/Variations/mono/Managed/UnityEngine.IMGUIModule.dll"
-r:"/Applications/Unity/Hub/2021.3.15f1/Unity.app/Contents/PlaybackEngines/MacStandaloneSupport/Variations/mono/Managed/UnityEngine.InputLegacyModule.dll"
-r:"/Applications/Unity/Hub/2021.3.15f1/Unity.app/Contents/PlaybackEngines/MacStandaloneSupport/Variations/mono/Managed/UnityEngine.InputModule.dll"
-r:"/Applications/Unity/Hub/2021.3.15f1/Unity.app/Contents/PlaybackEngines/MacStandaloneSupport/Variations/mono/Managed/UnityEngine.JSONSerializeModule.dll"
-r:"/Applications/Unity/Hub/2021.3.15f1/Unity.app/Contents/PlaybackEngines/MacStandaloneSupport/Variations/mono/Managed/UnityEngine.LocalizationModule.dll"
-r:"/Applications/Unity/Hub/2021.3.15f1/Unity.app/Contents/PlaybackEngines/MacStandaloneSupport/Variations/mono/Managed/UnityEngine.ParticleSystemModule.dll"
-r:"/Applications/Unity/Hub/2021.3.15f1/Unity.app/Contents/PlaybackEngines/MacStandaloneSupport/Variations/mono/Managed/UnityEngine.PerformanceReportingModule.dll"
-r:"/Applications/Unity/Hub/2021.3.15f1/Unity.app/Contents/PlaybackEngines/MacStandaloneSupport/Variations/mono/Managed/UnityEngine.Physics2DModule.dll"
-r:"/Applications/Unity/Hub/2021.3.15f1/Unity.app/Contents/PlaybackEngines/MacStandaloneSupport/Variations/mono/Managed/UnityEngine.PhysicsModule.dll"
-r:"/Applications/Unity/Hub/2021.3.15f1/Unity.app/Contents/PlaybackEngines/MacStandaloneSupport/Variations/mono/Managed/UnityEngine.ProfilerModule.dll"
-r:"/Applications/Unity/Hub/2021.3.15f1/Unity.app/Contents/PlaybackEngines/MacStandaloneSupport/Variations/mono/Managed/UnityEngine.RuntimeInitializeOnLoadManagerInitializerModule.dll"
-r:"/Applications/Unity/Hub/2021.3.15f1/Unity.app/Contents/PlaybackEngines/MacStandaloneSupport/Variations/mono/Managed/UnityEngine.ScreenCaptureModule.dll"
-r:"/Applications/Unity/Hub/2021.3.15f1/Unity.app/Contents/PlaybackEngines/MacStandaloneSupport/Variations/mono/Managed/UnityEngine.SharedInternalsModule.dll"
-r:"/Applications/Unity/Hub/2021.3.15f1/Unity.app/Contents/PlaybackEngines/MacStandaloneSupport/Variations/mono/Managed/UnityEngine.SpriteMaskModule.dll"
-r:"/Applications/Unity/Hub/2021.3.15f1/Unity.app/Contents/PlaybackEngines/MacStandaloneSupport/Variations/mono/Managed/UnityEngine.SpriteShapeModule.dll"
-r:"/Applications/Unity/Hub/2021.3.15f1/Unity.app/Contents/PlaybackEngines/MacStandaloneSupport/Variations/mono/Managed/UnityEngine.StreamingModule.dll"
-r:"/Applications/Unity/Hub/2021.3.15f1/Unity.app/Contents/PlaybackEngines/MacStandaloneSupport/Variations/mono/Managed/UnityEngine.SubstanceModule.dll"
-r:"/Applications/Unity/Hub/2021.3.15f1/Unity.app/Contents/PlaybackEngines/MacStandaloneSupport/Variations/mono/Managed/UnityEngine.SubsystemsModule.dll"
-r:"/Applications/Unity/Hub/2021.3.15f1/Unity.app/Contents/PlaybackEngines/MacStandaloneSupport/Variations/mono/Managed/UnityEngine.TerrainModule.dll"
-r:"/Applications/Unity/Hub/2021.3.15f1/Unity.app/Contents/PlaybackEngines/MacStandaloneSupport/Variations/mono/Managed/UnityEngine.TerrainPhysicsModule.dll"
-r:"/Applications/Unity/Hub/2021.3.15f1/Unity.app/Contents/PlaybackEngines/MacStandaloneSupport/Variations/mono/Managed/UnityEngine.TextCoreFontEngineModule.dll"
-r:"/Applications/Unity/Hub/2021.3.15f1/Unity.app/Contents/PlaybackEngines/MacStandaloneSupport/Variations/mono/Managed/UnityEngine.TextCoreTextEngineModule.dll"
-r:"/Applications/Unity/Hub/2021.3.15f1/Unity.app/Contents/PlaybackEngines/MacStandaloneSupport/Variations/mono/Managed/UnityEngine.TextRenderingModule.dll"
-r:"/Applications/Unity/Hub/2021.3.15f1/Unity.app/Contents/PlaybackEngines/MacStandaloneSupport/Variations/mono/Managed/UnityEngine.TilemapModule.dll"
-r:"/Applications/Unity/Hub/2021.3.15f1/Unity.app/Contents/PlaybackEngines/MacStandaloneSupport/Variations/mono/Managed/UnityEngine.TLSModule.dll"
-r:"/Applications/Unity/Hub/2021.3.15f1/Unity.app/Contents/PlaybackEngines/MacStandaloneSupport/Variations/mono/Managed/UnityEngine.UIElementsModule.dll"
-r:"/Applications/Unity/Hub/2021.3.15f1/Unity.app/Contents/PlaybackEngines/MacStandaloneSupport/Variations/mono/Managed/UnityEngine.UIElementsNativeModule.dll"
-r:"/Applications/Unity/Hub/2021.3.15f1/Unity.app/Contents/PlaybackEngines/MacStandaloneSupport/Variations/mono/Managed/UnityEngine.UIModule.dll"
-r:"/Applications/Unity/Hub/2021.3.15f1/Unity.app/Contents/PlaybackEngines/MacStandaloneSupport/Variations/mono/Managed/UnityEngine.UmbraModule.dll"
-r:"/Applications/Unity/Hub/2021.3.15f1/Unity.app/Contents/PlaybackEngines/MacStandaloneSupport/Variations/mono/Managed/UnityEngine.UNETModule.dll"
-r:"/Applications/Unity/Hub/2021.3.15f1/Unity.app/Contents/PlaybackEngines/MacStandaloneSupport/Variations/mono/Managed/UnityEngine.UnityAnalyticsCommonModule.dll"
-r:"/Applications/Unity/Hub/2021.3.15f1/Unity.app/Contents/PlaybackEngines/MacStandaloneSupport/Variations/mono/Managed/UnityEngine.UnityAnalyticsModule.dll"
-r:"/Applications/Unity/Hub/2021.3.15f1/Unity.app/Contents/PlaybackEngines/MacStandaloneSupport/Variations/mono/Managed/UnityEngine.UnityConnectModule.dll"
-r:"/Applications/Unity/Hub/2021.3.15f1/Unity.app/Contents/PlaybackEngines/MacStandaloneSupport/Variations/mono/Managed/UnityEngine.UnityCurlModule.dll"
-r:"/Applications/Unity/Hub/2021.3.15f1/Unity.app/Contents/PlaybackEngines/MacStandaloneSupport/Variations/mono/Managed/UnityEngine.UnityTestProtocolModule.dll"
-r:"/Applications/Unity/Hub/2021.3.15f1/Unity.app/Contents/PlaybackEngines/MacStandaloneSupport/Variations/mono/Managed/UnityEngine.UnityWebRequestAssetBundleModule.dll"
-r:"/Applications/Unity/Hub/2021.3.15f1/Unity.app/Contents/PlaybackEngines/MacStandaloneSupport/Variations/mono/Managed/UnityEngine.UnityWebRequestAudioModule.dll"
-r:"/Applications/Unity/Hub/2021.3.15f1/Unity.app/Contents/PlaybackEngines/MacStandaloneSupport/Variations/mono/Managed/UnityEngine.UnityWebRequestModule.dll"
-r:"/Applications/Unity/Hub/2021.3.15f1/Unity.app/Contents/PlaybackEngines/MacStandaloneSupport/Variations/mono/Managed/UnityEngine.UnityWebRequestTextureModule.dll"
-r:"/Applications/Unity/Hub/2021.3.15f1/Unity.app/Contents/PlaybackEngines/MacStandaloneSupport/Variations/mono/Managed/UnityEngine.UnityWebRequestWWWModule.dll"
-r:"/Applications/Unity/Hub/2021.3.15f1/Unity.app/Contents/PlaybackEngines/MacStandaloneSupport/Variations/mono/Managed/UnityEngine.VehiclesModule.dll"
-r:"/Applications/Unity/Hub/2021.3.15f1/Unity.app/Contents/PlaybackEngines/MacStandaloneSupport/Variations/mono/Managed/UnityEngine.VFXModule.dll"
-r:"/Applications/Unity/Hub/2021.3.15f1/Unity.app/Contents/PlaybackEngines/MacStandaloneSupport/Variations/mono/Managed/UnityEngine.VideoModule.dll"
-r:"/Applications/Unity/Hub/2021.3.15f1/Unity.app/Contents/PlaybackEngines/MacStandaloneSupport/Variations/mono/Managed/UnityEngine.VirtualTexturingModule.dll"
-r:"/Applications/Unity/Hub/2021.3.15f1/Unity.app/Contents/PlaybackEngines/MacStandaloneSupport/Variations/mono/Managed/UnityEngine.VRModule.dll"
-r:"/Applications/Unity/Hub/2021.3.15f1/Unity.app/Contents/PlaybackEngines/MacStandaloneSupport/Variations/mono/Managed/UnityEngine.WindModule.dll"
-r:"/Applications/Unity/Hub/2021.3.15f1/Unity.app/Contents/PlaybackEngines/MacStandaloneSupport/Variations/mono/Managed/UnityEngine.XRModule.dll"
-r:"/Users/jellyfishng/Downloads/SurvHor/Library/PackageCache/com.unity.nuget.newtonsoft-json@3.0.2/Runtime/AOT/Newtonsoft.Json.dll"
-r:"Library/Bee/artifacts/200b0aP.dag/Assembly-CSharp-firstpass.ref.dll"
-r:"Library/Bee/artifacts/200b0aP.dag/Purchasing.Common.ref.dll"
-r:"Library/Bee/artifacts/200b0aP.dag/Unity.Analytics.DataPrivacy.ref.dll"
-r:"Library/Bee/artifacts/200b0aP.dag/Unity.Services.Analytics.ref.dll"
-r:"Library/Bee/artifacts/200b0aP.dag/Unity.Services.Core.Analytics.ref.dll"
-r:"Library/Bee/artifacts/200b0aP.dag/Unity.Services.Core.Environments.ref.dll"
-r:"Library/Bee/artifacts/200b0aP.dag/Unity.Services.Core.ref.dll"
-r:"Library/Bee/artifacts/200b0aP.dag/Unity.TextMeshPro.ref.dll"
-r:"Library/Bee/artifacts/200b0aP.dag/Unity.Timeline.ref.dll"
-r:"Library/Bee/artifacts/200b0aP.dag/UnityEngine.Advertisements.ref.dll"
-r:"Library/Bee/artifacts/200b0aP.dag/UnityEngine.Monetization.ref.dll"
-r:"Library/Bee/artifacts/200b0aP.dag/UnityEngine.Purchasing.Codeless.ref.dll"
-r:"Library/Bee/artifacts/200b0aP.dag/UnityEngine.Purchasing.ref.dll"
-r:"Library/Bee/artifacts/200b0aP.dag/UnityEngine.Purchasing.Security.ref.dll"
-r:"Library/Bee/artifacts/200b0aP.dag/UnityEngine.Purchasing.SecurityCore.ref.dll"
-r:"Library/Bee/artifacts/200b0aP.dag/UnityEngine.Purchasing.Stores.ref.dll"
-r:"Library/Bee/artifacts/200b0aP.dag/UnityEngine.SpatialTracking.ref.dll"
-r:"Library/Bee/artifacts/200b0aP.dag/UnityEngine.UI.ref.dll"
-r:"Library/Bee/artifacts/200b0aP.dag/UnityEngine.XR.LegacyInputHelpers.ref.dll"
"Assets/PostProcessing/Runtime/Attributes/GetSetAttribute.cs"
"Assets/PostProcessing/Runtime/Attributes/MinAttribute.cs"
"Assets/PostProcessing/Runtime/Attributes/TrackballAttribute.cs"
"Assets/PostProcessing/Runtime/Attributes/TrackballGroupAttribute.cs"
"Assets/PostProcessing/Runtime/Components/AmbientOcclusionComponent.cs"
"Assets/PostProcessing/Runtime/Components/BloomComponent.cs"
"Assets/PostProcessing/Runtime/Components/BuiltinDebugViewsComponent.cs"
"Assets/PostProcessing/Runtime/Components/ChromaticAberrationComponent.cs"
"Assets/PostProcessing/Runtime/Components/ColorGradingComponent.cs"
"Assets/PostProcessing/Runtime/Components/DepthOfFieldComponent.cs"
"Assets/PostProcessing/Runtime/Components/DitheringComponent.cs"
"Assets/PostProcessing/Runtime/Components/EyeAdaptationComponent.cs"
"Assets/PostProcessing/Runtime/Components/FogComponent.cs"
"Assets/PostProcessing/Runtime/Components/FxaaComponent.cs"
"Assets/PostProcessing/Runtime/Components/GrainComponent.cs"
"Assets/PostProcessing/Runtime/Components/MotionBlurComponent.cs"
"Assets/PostProcessing/Runtime/Components/ScreenSpaceReflectionComponent.cs"
"Assets/PostProcessing/Runtime/Components/TaaComponent.cs"
"Assets/PostProcessing/Runtime/Components/UserLutComponent.cs"
"Assets/PostProcessing/Runtime/Components/VignetteComponent.cs"
"Assets/PostProcessing/Runtime/Models/AmbientOcclusionModel.cs"
"Assets/PostProcessing/Runtime/Models/AntialiasingModel.cs"
"Assets/PostProcessing/Runtime/Models/BloomModel.cs"
"Assets/PostProcessing/Runtime/Models/BuiltinDebugViewsModel.cs"
"Assets/PostProcessing/Runtime/Models/ChromaticAberrationModel.cs"
"Assets/PostProcessing/Runtime/Models/ColorGradingModel.cs"
"Assets/PostProcessing/Runtime/Models/DepthOfFieldModel.cs"
"Assets/PostProcessing/Runtime/Models/DitheringModel.cs"
"Assets/PostProcessing/Runtime/Models/EyeAdaptationModel.cs"
"Assets/PostProcessing/Runtime/Models/FogModel.cs"
"Assets/PostProcessing/Runtime/Models/GrainModel.cs"
"Assets/PostProcessing/Runtime/Models/MotionBlurModel.cs"
"Assets/PostProcessing/Runtime/Models/ScreenSpaceReflectionModel.cs"
"Assets/PostProcessing/Runtime/Models/UserLutModel.cs"
"Assets/PostProcessing/Runtime/Models/VignetteModel.cs"
"Assets/PostProcessing/Runtime/PostProcessingBehaviour.cs"
"Assets/PostProcessing/Runtime/PostProcessingComponent.cs"
"Assets/PostProcessing/Runtime/PostProcessingContext.cs"
"Assets/PostProcessing/Runtime/PostProcessingModel.cs"
"Assets/PostProcessing/Runtime/PostProcessingProfile.cs"
"Assets/PostProcessing/Runtime/Utils/ColorGradingCurve.cs"
"Assets/PostProcessing/Runtime/Utils/GraphicsUtils.cs"
"Assets/PostProcessing/Runtime/Utils/MaterialFactory.cs"
"Assets/PostProcessing/Runtime/Utils/RenderTextureFactory.cs"
"Assets/PostProcessing/Utilities/CustomMotionTexture/ExampleWheelController.cs"
"Assets/Scripts/ActivateStalker.cs"
"Assets/Scripts/AmmoPickup.cs"
"Assets/Scripts/CellExitDoor.cs"
"Assets/Scripts/DoorCellOpen.cs"
"Assets/Scripts/Environment/CollideCup.cs"
"Assets/Scripts/Environment/EyePlacement.cs"
"Assets/Scripts/Environment/KeyPickup.cs"
"Assets/Scripts/Environment/LeftEyePickup.cs"
"Assets/Scripts/Environment/LockedDoor.cs"
"Assets/Scripts/Environment/MinorJump.cs"
"Assets/Scripts/Environment/RightEyePickup.cs"
"Assets/Scripts/Environment/VaseBreak.cs"
"Assets/Scripts/FirePistol.cs"
"Assets/Scripts/FlameAnimations.cs"
"Assets/Scripts/GlobalAmmo.cs"
"Assets/Scripts/GlobalHealth.cs"
"Assets/Scripts/GlobalInventory.cs"
"Assets/Scripts/Menus/MainMenuFunction.cs"
"Assets/Scripts/Menus/SplashToMunu.cs"
"Assets/Scripts/PickUpPistol.cs"
"Assets/Scripts/PlayerCasting.cs"
"Assets/Scripts/SavingMech/Auto01.cs"
"Assets/Scripts/SavingMech/Auto02.cs"
"Assets/Scripts/SavingMech/LoadScript.cs"
"Assets/Scripts/Sequences/AOpening.cs"
"Assets/Scripts/Sequences/BFirstTrigger.cs"
"Assets/Scripts/Sequences/BZJumpTrigger.cs"
"Assets/Scripts/Sequences/Intro/IntroSequencing.cs"
"Assets/Scripts/StalkerAI.cs"
"Assets/Scripts/ZombieAI.cs"
"Assets/Scripts/ZombieDeath.cs"
-langversion:9.0

/deterministic
/optimize+
/debug:portable
/nologo
/RuntimeMetadataVersion:v4.0.30319

/nowarn:0169
/nowarn:0649
/nowarn:1701
/nowarn:1702
/utf8output
/preferreduilang:en-US


/additionalfile:"Library/Bee/artifacts/200b0aP.dag/Assembly-CSharp.AdditionalFile.txt"