Library/Bee/artifacts/mvdfrm/UnityEngine.SpatialTracking.ref.dll_BCB7DDCFB7787B8C.mvfrm
Library/Bee/artifacts/mvdfrm/UnityEngine.UI.ref.dll_6B5C9FE847018E19.mvfrm
Library/Bee/artifacts/mvdfrm/UnityEngine.AccessibilityModule.dll_66F43A7FBC1521CA.mvfrm
Library/Bee/artifacts/mvdfrm/UnityEngine.AIModule.dll_2FE8C58A30A84490.mvfrm
Library/Bee/artifacts/mvdfrm/UnityEngine.AndroidJNIModule.dll_CDCB5A500799524E.mvfrm
Library/Bee/artifacts/mvdfrm/UnityEngine.AnimationModule.dll_07CFEBAF7A557DF0.mvfrm
Library/Bee/artifacts/mvdfrm/UnityEngine.ARModule.dll_E95B8A8D8DC5A359.mvfrm
Library/Bee/artifacts/mvdfrm/UnityEngine.AssetBundleModule.dll_C061CD758387B31E.mvfrm
Library/Bee/artifacts/mvdfrm/UnityEngine.AudioModule.dll_EAD28973C015E2E2.mvfrm
Library/Bee/artifacts/mvdfrm/UnityEngine.ClothModule.dll_51BAE66E9A32C1C6.mvfrm
Library/Bee/artifacts/mvdfrm/UnityEngine.ClusterInputModule.dll_B763B65EA2B53538.mvfrm
Library/Bee/artifacts/mvdfrm/UnityEngine.ClusterRendererModule.dll_E39EFAAA81981649.mvfrm
Library/Bee/artifacts/mvdfrm/UnityEngine.CoreModule.dll_0560D740365F40E7.mvfrm
Library/Bee/artifacts/mvdfrm/UnityEngine.CrashReportingModule.dll_29199215F169EADF.mvfrm
Library/Bee/artifacts/mvdfrm/UnityEngine.DirectorModule.dll_A5D11A6A4B2110C4.mvfrm
Library/Bee/artifacts/mvdfrm/UnityEngine.dll_16E122FE7703F3FE.mvfrm
Library/Bee/artifacts/mvdfrm/UnityEngine.DSPGraphModule.dll_AB227BD3BD81E1E5.mvfrm
Library/Bee/artifacts/mvdfrm/UnityEngine.GameCenterModule.dll_F818A46ACDDA433F.mvfrm
Library/Bee/artifacts/mvdfrm/UnityEngine.GIModule.dll_C8250E97CC572CAA.mvfrm
Library/Bee/artifacts/mvdfrm/UnityEngine.GridModule.dll_E2D1F32E4EB3D6DE.mvfrm
Library/Bee/artifacts/mvdfrm/UnityEngine.HotReloadModule.dll_8918A9B555889972.mvfrm
Library/Bee/artifacts/mvdfrm/UnityEngine.ImageConversionModule.dll_4F90F85B03BCCE3D.mvfrm
Library/Bee/artifacts/mvdfrm/UnityEngine.IMGUIModule.dll_233228DA864776C3.mvfrm
Library/Bee/artifacts/mvdfrm/UnityEngine.InputLegacyModule.dll_51A6E8941B79690F.mvfrm
Library/Bee/artifacts/mvdfrm/UnityEngine.InputModule.dll_51485124364E0786.mvfrm
Library/Bee/artifacts/mvdfrm/UnityEngine.JSONSerializeModule.dll_C70BC3BBBB508254.mvfrm
Library/Bee/artifacts/mvdfrm/UnityEngine.LocalizationModule.dll_F5B080B13A312831.mvfrm
Library/Bee/artifacts/mvdfrm/UnityEngine.ParticleSystemModule.dll_7C2BDB625F7B766D.mvfrm
Library/Bee/artifacts/mvdfrm/UnityEngine.PerformanceReportingModule.dll_93BCCA3419937CA6.mvfrm
Library/Bee/artifacts/mvdfrm/UnityEngine.Physics2DModule.dll_5475DBA01B527585.mvfrm
Library/Bee/artifacts/mvdfrm/UnityEngine.PhysicsModule.dll_B582C72ADCCB9DF3.mvfrm
Library/Bee/artifacts/mvdfrm/UnityEngine.ProfilerModule.dll_D81753A0E47A97D1.mvfrm
Library/Bee/artifacts/mvdfrm/UnityEngine.RuntimeInitializeOnLoadManagerInitializerModule.dll_E6006BD0A866704E.mvfrm
Library/Bee/artifacts/mvdfrm/UnityEngine.ScreenCaptureModule.dll_E0F37140CFBCAEB6.mvfrm
Library/Bee/artifacts/mvdfrm/UnityEngine.SharedInternalsModule.dll_D3A237307AEAC98D.mvfrm
Library/Bee/artifacts/mvdfrm/UnityEngine.SpriteMaskModule.dll_E14516FAEF49D8B9.mvfrm
Library/Bee/artifacts/mvdfrm/UnityEngine.SpriteShapeModule.dll_D9C2FAD03929EB28.mvfrm
Library/Bee/artifacts/mvdfrm/UnityEngine.StreamingModule.dll_BC64D8FFC9DD352E.mvfrm
Library/Bee/artifacts/mvdfrm/UnityEngine.SubstanceModule.dll_990FED491530333C.mvfrm
Library/Bee/artifacts/mvdfrm/UnityEngine.SubsystemsModule.dll_4BF27D5CBD91C0CC.mvfrm
Library/Bee/artifacts/mvdfrm/UnityEngine.TerrainModule.dll_CFC94299B289E6E1.mvfrm
Library/Bee/artifacts/mvdfrm/UnityEngine.TerrainPhysicsModule.dll_7CA6843578BE70FA.mvfrm
Library/Bee/artifacts/mvdfrm/UnityEngine.TextCoreFontEngineModule.dll_461AECF098F3C285.mvfrm
Library/Bee/artifacts/mvdfrm/UnityEngine.TextCoreTextEngineModule.dll_8E03236228777BA3.mvfrm
Library/Bee/artifacts/mvdfrm/UnityEngine.TextRenderingModule.dll_0A32E34B86F42EAB.mvfrm
Library/Bee/artifacts/mvdfrm/UnityEngine.TilemapModule.dll_6EC5AA1ACA46C7EA.mvfrm
Library/Bee/artifacts/mvdfrm/UnityEngine.TLSModule.dll_CA8FDDA46E0CBA07.mvfrm
Library/Bee/artifacts/mvdfrm/UnityEngine.UIElementsModule.dll_5030DEC4C0BDFCC3.mvfrm
Library/Bee/artifacts/mvdfrm/UnityEngine.UIElementsNativeModule.dll_070FE124E91F603A.mvfrm
Library/Bee/artifacts/mvdfrm/UnityEngine.UIModule.dll_2B5C63B78CEF4A3C.mvfrm
Library/Bee/artifacts/mvdfrm/UnityEngine.UmbraModule.dll_65A7358C4D3C8E55.mvfrm
Library/Bee/artifacts/mvdfrm/UnityEngine.UNETModule.dll_98071F29836E3660.mvfrm
Library/Bee/artifacts/mvdfrm/UnityEngine.UnityAnalyticsCommonModule.dll_2EFB8778337C1B04.mvfrm
Library/Bee/artifacts/mvdfrm/UnityEngine.UnityAnalyticsModule.dll_9BCB4C2C0BA2C869.mvfrm
Library/Bee/artifacts/mvdfrm/UnityEngine.UnityConnectModule.dll_2526C557EBB5631D.mvfrm
Library/Bee/artifacts/mvdfrm/UnityEngine.UnityCurlModule.dll_3AEC8CE0EA696FDD.mvfrm
Library/Bee/artifacts/mvdfrm/UnityEngine.UnityTestProtocolModule.dll_09148C4B27B072CB.mvfrm
Library/Bee/artifacts/mvdfrm/UnityEngine.UnityWebRequestAssetBundleModule.dll_8751743D753991FA.mvfrm
Library/Bee/artifacts/mvdfrm/UnityEngine.UnityWebRequestAudioModule.dll_0BB91E129FFE473E.mvfrm
Library/Bee/artifacts/mvdfrm/UnityEngine.UnityWebRequestModule.dll_613000050EB168BC.mvfrm
Library/Bee/artifacts/mvdfrm/UnityEngine.UnityWebRequestTextureModule.dll_44A28968682B50D3.mvfrm
Library/Bee/artifacts/mvdfrm/UnityEngine.UnityWebRequestWWWModule.dll_58C568BE1837380F.mvfrm
Library/Bee/artifacts/mvdfrm/UnityEngine.VehiclesModule.dll_1D9413E9C54AE05F.mvfrm
Library/Bee/artifacts/mvdfrm/UnityEngine.VFXModule.dll_4B6E7613447A2374.mvfrm
Library/Bee/artifacts/mvdfrm/UnityEngine.VideoModule.dll_0FDC0DDE82A7FE87.mvfrm
Library/Bee/artifacts/mvdfrm/UnityEngine.VirtualTexturingModule.dll_2B9C9593C1CDE0C5.mvfrm
Library/Bee/artifacts/mvdfrm/UnityEngine.VRModule.dll_7E2E8A3D2EA9CFB4.mvfrm
Library/Bee/artifacts/mvdfrm/UnityEngine.WindModule.dll_7BAFB268C795BF50.mvfrm
Library/Bee/artifacts/mvdfrm/UnityEngine.XRModule.dll_B0ED4D41B7E41D12.mvfrm