Library/Bee/artifacts/mvdfrm/UnityEngine.AccessibilityModule.dll_6CC20E01C928D622.mvfrm
Library/Bee/artifacts/mvdfrm/UnityEngine.AIModule.dll_AE21C62515CD60B8.mvfrm
Library/Bee/artifacts/mvdfrm/UnityEngine.AndroidJNIModule.dll_15A6BC8307648276.mvfrm
Library/Bee/artifacts/mvdfrm/UnityEngine.AnimationModule.dll_BCFC80656A405C48.mvfrm
Library/Bee/artifacts/mvdfrm/UnityEngine.ARModule.dll_67948B2872EABF81.mvfrm
Library/Bee/artifacts/mvdfrm/UnityEngine.AssetBundleModule.dll_DC4CC7E7B05C4C76.mvfrm
Library/Bee/artifacts/mvdfrm/UnityEngine.AudioModule.dll_2DA772DFF1FD6B3A.mvfrm
Library/Bee/artifacts/mvdfrm/UnityEngine.ClothModule.dll_948FCFDACC1A4A1E.mvfrm
Library/Bee/artifacts/mvdfrm/UnityEngine.ClusterInputModule.dll_2099C94459C17A60.mvfrm
Library/Bee/artifacts/mvdfrm/UnityEngine.ClusterRendererModule.dll_EDE53A1D8CAC45A1.mvfrm
Library/Bee/artifacts/mvdfrm/UnityEngine.CoreModule.dll_E6DC0EC4E47AF20F.mvfrm
Library/Bee/artifacts/mvdfrm/UnityEngine.CrashReportingModule.dll_F1F41D7DF8DBE507.mvfrm
Library/Bee/artifacts/mvdfrm/UnityEngine.DirectorModule.dll_FEF87288C67BCBEC.mvfrm
Library/Bee/artifacts/mvdfrm/UnityEngine.dll_0EB62DA62C027A56.mvfrm
Library/Bee/artifacts/mvdfrm/UnityEngine.DSPGraphModule.dll_0449D3F238DC9D0D.mvfrm
Library/Bee/artifacts/mvdfrm/UnityEngine.GameCenterModule.dll_3FF4069DCDA57367.mvfrm
Library/Bee/artifacts/mvdfrm/UnityEngine.GIModule.dll_465E0F32B17C48D2.mvfrm
Library/Bee/artifacts/mvdfrm/UnityEngine.GridModule.dll_C44D2AB2FCCF8806.mvfrm
Library/Bee/artifacts/mvdfrm/UnityEngine.HotReloadModule.dll_3E453E6B457377CA.mvfrm
Library/Bee/artifacts/mvdfrm/UnityEngine.ImageConversionModule.dll_59D737CE0ED0FD95.mvfrm
Library/Bee/artifacts/mvdfrm/UnityEngine.IMGUIModule.dll_66071246B82EFF1B.mvfrm
Library/Bee/artifacts/mvdfrm/UnityEngine.InputLegacyModule.dll_6D91E306484E0267.mvfrm
Library/Bee/artifacts/mvdfrm/UnityEngine.InputModule.dll_941D3A9068358FDE.mvfrm
Library/Bee/artifacts/mvdfrm/UnityEngine.JSONSerializeModule.dll_CCD9973DC86436AC.mvfrm
Library/Bee/artifacts/mvdfrm/UnityEngine.LocalizationModule.dll_5EE69396F13D6D59.mvfrm
Library/Bee/artifacts/mvdfrm/UnityEngine.ParticleSystemModule.dll_450666CA66ED7095.mvfrm
Library/Bee/artifacts/mvdfrm/UnityEngine.PerformanceReportingModule.dll_060160A4DDDA55CE.mvfrm
Library/Bee/artifacts/mvdfrm/UnityEngine.Physics2DModule.dll_09A270560B3D53DD.mvfrm
Library/Bee/artifacts/mvdfrm/UnityEngine.PhysicsModule.dll_55E91E1BCE36214B.mvfrm
Library/Bee/artifacts/mvdfrm/UnityEngine.ProfilerModule.dll_313EABBF5FD552F9.mvfrm
Library/Bee/artifacts/mvdfrm/UnityEngine.RuntimeInitializeOnLoadManagerInitializerModule.dll_1E7AC2C9DD31FEA6.mvfrm
Library/Bee/artifacts/mvdfrm/UnityEngine.ScreenCaptureModule.dll_E6C144C2DCD0630E.mvfrm
Library/Bee/artifacts/mvdfrm/UnityEngine.SharedInternalsModule.dll_DDE876A385FEF8E5.mvfrm
Library/Bee/artifacts/mvdfrm/UnityEngine.SpriteMaskModule.dll_2920792DEF1508E1.mvfrm
Library/Bee/artifacts/mvdfrm/UnityEngine.SpriteShapeModule.dll_F5ADF54265FE8480.mvfrm
Library/Bee/artifacts/mvdfrm/UnityEngine.StreamingModule.dll_71916DB5B9C81386.mvfrm
Library/Bee/artifacts/mvdfrm/UnityEngine.SubstanceModule.dll_4E3C81FF051B1194.mvfrm
Library/Bee/artifacts/mvdfrm/UnityEngine.SubsystemsModule.dll_93CDDF8FBD5CF0F4.mvfrm
Library/Bee/artifacts/mvdfrm/UnityEngine.TerrainModule.dll_702F998AA3F46A39.mvfrm
Library/Bee/artifacts/mvdfrm/UnityEngine.TerrainPhysicsModule.dll_45810F9D80306B22.mvfrm
Library/Bee/artifacts/mvdfrm/UnityEngine.TextCoreFontEngineModule.dll_B7CD3D35126F06AD.mvfrm
Library/Bee/artifacts/mvdfrm/UnityEngine.TextCoreTextEngineModule.dll_FFB573A6A1F2BFCB.mvfrm
Library/Bee/artifacts/mvdfrm/UnityEngine.TextRenderingModule.dll_1000B6CD9407E303.mvfrm
Library/Bee/artifacts/mvdfrm/UnityEngine.TilemapModule.dll_0F2C010BBBB14B42.mvfrm
Library/Bee/artifacts/mvdfrm/UnityEngine.TLSModule.dll_ED9CA9C4D582A75F.mvfrm
Library/Bee/artifacts/mvdfrm/UnityEngine.UIElementsModule.dll_980C40F7C0892CEB.mvfrm
Library/Bee/artifacts/mvdfrm/UnityEngine.UIElementsNativeModule.dll_92EFDFB512EFAF62.mvfrm
Library/Bee/artifacts/mvdfrm/UnityEngine.UIModule.dll_A995645272146664.mvfrm
Library/Bee/artifacts/mvdfrm/UnityEngine.UmbraModule.dll_A87C1EF87F2416AD.mvfrm
Library/Bee/artifacts/mvdfrm/UnityEngine.UNETModule.dll_798256AE3189E788.mvfrm
Library/Bee/artifacts/mvdfrm/UnityEngine.UnityAnalyticsCommonModule.dll_A1401DE8F7C2F42C.mvfrm
Library/Bee/artifacts/mvdfrm/UnityEngine.UnityAnalyticsModule.dll_64A5D7941314C291.mvfrm
Library/Bee/artifacts/mvdfrm/UnityEngine.UnityConnectModule.dll_8E5CD83DA2C1A845.mvfrm
Library/Bee/artifacts/mvdfrm/UnityEngine.UnityCurlModule.dll_F0192196DA544E35.mvfrm
Library/Bee/artifacts/mvdfrm/UnityEngine.UnityTestProtocolModule.dll_4F3372308E727D23.mvfrm
Library/Bee/artifacts/mvdfrm/UnityEngine.UnityWebRequestAssetBundleModule.dll_EEA485C24C6EEA22.mvfrm
Library/Bee/artifacts/mvdfrm/UnityEngine.UnityWebRequestAudioModule.dll_7DFDB48364452066.mvfrm
Library/Bee/artifacts/mvdfrm/UnityEngine.UnityWebRequestModule.dll_6B763F7819C59814.mvfrm
Library/Bee/artifacts/mvdfrm/UnityEngine.UnityWebRequestTextureModule.dll_31A9FA2E02B25EFB.mvfrm
Library/Bee/artifacts/mvdfrm/UnityEngine.UnityWebRequestWWWModule.dll_CA77B90291B27C37.mvfrm
Library/Bee/artifacts/mvdfrm/UnityEngine.VehiclesModule.dll_76BB6C0840A59B87.mvfrm
Library/Bee/artifacts/mvdfrm/UnityEngine.VFXModule.dll_6E7B4233ABF010CC.mvfrm
Library/Bee/artifacts/mvdfrm/UnityEngine.VideoModule.dll_52B0F74AB48F86DF.mvfrm
Library/Bee/artifacts/mvdfrm/UnityEngine.VirtualTexturingModule.dll_B77C9423EB9E2FED.mvfrm
Library/Bee/artifacts/mvdfrm/UnityEngine.VRModule.dll_FC678AD813CEEBDC.mvfrm
Library/Bee/artifacts/mvdfrm/UnityEngine.WindModule.dll_5D2AE9ED75B17078.mvfrm
Library/Bee/artifacts/mvdfrm/UnityEngine.XRModule.dll_2F264DDC9D09393A.mvfrm