Library/Bee/artifacts/mvdfrm/UnityEditor.UI.ref.dll_BD0E97F52A0DF729.mvfrm
Library/Bee/artifacts/mvdfrm/UnityEngine.UI.ref.dll_79746E5030301F94.mvfrm
Library/Bee/artifacts/mvdfrm/UnityEditor.WindowsStandalone.Extensions.dll_5A88F7D8B8230936.mvfrm
Library/Bee/artifacts/mvdfrm/UnityEditor.Graphs.dll_04698D15F516C020.mvfrm
Library/Bee/artifacts/mvdfrm/UnityEditor.CoreModule.dll_121D5DAC9111A3EE.mvfrm
Library/Bee/artifacts/mvdfrm/UnityEditor.DeviceSimulatorModule.dll_BC9A0E6FBAF52F33.mvfrm
Library/Bee/artifacts/mvdfrm/UnityEditor.DiagnosticsModule.dll_D6C4891F5E05DCC1.mvfrm
Library/Bee/artifacts/mvdfrm/UnityEditor.dll_BA81DFEFF6AA8247.mvfrm
Library/Bee/artifacts/mvdfrm/UnityEditor.GraphViewModule.dll_CBFC2326DDFD7278.mvfrm
Library/Bee/artifacts/mvdfrm/UnityEditor.PackageManagerUIModule.dll_D4A375D07BD713CA.mvfrm
Library/Bee/artifacts/mvdfrm/UnityEditor.QuickSearchModule.dll_61D40A2CB6DCD91A.mvfrm
Library/Bee/artifacts/mvdfrm/UnityEditor.SceneTemplateModule.dll_0F61464D52299EDB.mvfrm
Library/Bee/artifacts/mvdfrm/UnityEditor.TextCoreFontEngineModule.dll_77621858AFCF71AC.mvfrm
Library/Bee/artifacts/mvdfrm/UnityEditor.TextCoreTextEngineModule.dll_BF4A4ECA3F532ACA.mvfrm
Library/Bee/artifacts/mvdfrm/UnityEditor.UIBuilderModule.dll_2084D04350B5EBAC.mvfrm
Library/Bee/artifacts/mvdfrm/UnityEditor.UIElementsModule.dll_D075DEB6F97AD86A.mvfrm
Library/Bee/artifacts/mvdfrm/UnityEditor.UIElementsSamplesModule.dll_14D7AF35AEA07DA3.mvfrm
Library/Bee/artifacts/mvdfrm/UnityEditor.UIServiceModule.dll_5976E1A639ED3BC6.mvfrm
Library/Bee/artifacts/mvdfrm/UnityEditor.UnityConnectModule.dll_7391E393C6EA49A4.mvfrm
Library/Bee/artifacts/mvdfrm/UnityEngine.AccessibilityModule.dll_4206B1E4529FC678.mvfrm
Library/Bee/artifacts/mvdfrm/UnityEngine.AIModule.dll_D0AB2B1E19CD4082.mvfrm
Library/Bee/artifacts/mvdfrm/UnityEngine.AndroidJNIModule.dll_4EBEC78A429A4740.mvfrm
Library/Bee/artifacts/mvdfrm/UnityEngine.AnimationModule.dll_9A819F4FB85A471E.mvfrm
Library/Bee/artifacts/mvdfrm/UnityEngine.ARModule.dll_8A1DF02176EA9F4B.mvfrm
Library/Bee/artifacts/mvdfrm/UnityEngine.AssetBundleModule.dll_A5BD3D1E19438E0C.mvfrm
Library/Bee/artifacts/mvdfrm/UnityEngine.AudioModule.dll_F5950846D5B7B090.mvfrm
Library/Bee/artifacts/mvdfrm/UnityEngine.ClothModule.dll_5C7D6541AFD48F74.mvfrm
Library/Bee/artifacts/mvdfrm/UnityEngine.ClusterInputModule.dll_F32E58A978721C6A.mvfrm
Library/Bee/artifacts/mvdfrm/UnityEngine.ClusterRendererModule.dll_C246D0E12AB03CB7.mvfrm
Library/Bee/artifacts/mvdfrm/UnityEngine.CoreModule.dll_353E30FF39170F19.mvfrm
Library/Bee/artifacts/mvdfrm/UnityEngine.CrashReportingModule.dll_8198783ABB138C51.mvfrm
Library/Bee/artifacts/mvdfrm/UnityEngine.DirectorModule.dll_B71481E76A4DDB76.mvfrm
Library/Bee/artifacts/mvdfrm/UnityEngine.dll_ED2626C8551E0F2C.mvfrm
Library/Bee/artifacts/mvdfrm/UnityEngine.DSPGraphModule.dll_BC65E350DCAEAC97.mvfrm
Library/Bee/artifacts/mvdfrm/UnityEngine.GameCenterModule.dll_790C11A508DB3831.mvfrm
Library/Bee/artifacts/mvdfrm/UnityEngine.GIModule.dll_68E7742BB57C289C.mvfrm
Library/Bee/artifacts/mvdfrm/UnityEngine.GridModule.dll_12AF4CED516BA510.mvfrm
Library/Bee/artifacts/mvdfrm/UnityEngine.HotReloadModule.dll_1BCA5D55938D62A0.mvfrm
Library/Bee/artifacts/mvdfrm/UnityEngine.ImageConversionModule.dll_2E38CE91ACD4F4AB.mvfrm
Library/Bee/artifacts/mvdfrm/UnityEngine.IMGUIModule.dll_2DF4A7AD9BE94471.mvfrm
Library/Bee/artifacts/mvdfrm/UnityEngine.InputLegacyModule.dll_3702583CB13543FD.mvfrm
Library/Bee/artifacts/mvdfrm/UnityEngine.InputModule.dll_5C0ACFF74BEFD534.mvfrm
Library/Bee/artifacts/mvdfrm/UnityEngine.JSONSerializeModule.dll_A21E3B2051DB2702.mvfrm
Library/Bee/artifacts/mvdfrm/UnityEngine.LocalizationModule.dll_317B22FC0FEE0F63.mvfrm
Library/Bee/artifacts/mvdfrm/UnityEngine.ParticleSystemModule.dll_D4AAC187292517DF.mvfrm
Library/Bee/artifacts/mvdfrm/UnityEngine.PerformanceReportingModule.dll_D2A5D441D3E1FCD8.mvfrm
Library/Bee/artifacts/mvdfrm/UnityEngine.Physics2DModule.dll_E7278F4059573EB3.mvfrm
Library/Bee/artifacts/mvdfrm/UnityEngine.PhysicsModule.dll_1000BB17126A0D61.mvfrm
Library/Bee/artifacts/mvdfrm/UnityEngine.ProfilerModule.dll_E95ABB1E03A76283.mvfrm
Library/Bee/artifacts/mvdfrm/UnityEngine.RuntimeInitializeOnLoadManagerInitializerModule.dll_F6A7F87F22CA957C.mvfrm
Library/Bee/artifacts/mvdfrm/UnityEngine.ScreenCaptureModule.dll_BC05E8A566475364.mvfrm
Library/Bee/artifacts/mvdfrm/UnityEngine.SharedInternalsModule.dll_B24A0D672402EFFB.mvfrm
Library/Bee/artifacts/mvdfrm/UnityEngine.SpriteMaskModule.dll_623884352A4ACDAB.mvfrm
Library/Bee/artifacts/mvdfrm/UnityEngine.SpriteShapeModule.dll_BF1E6A78CEE5C616.mvfrm
Library/Bee/artifacts/mvdfrm/UnityEngine.StreamingModule.dll_4F168CA007E1FE5C.mvfrm
Library/Bee/artifacts/mvdfrm/UnityEngine.SubstanceModule.dll_2BC1A0E95334FC6A.mvfrm
Library/Bee/artifacts/mvdfrm/UnityEngine.SubsystemsModule.dll_CCE5EA96F892B5BE.mvfrm
Library/Bee/artifacts/mvdfrm/UnityEngine.TerrainModule.dll_2A473685E828564F.mvfrm
Library/Bee/artifacts/mvdfrm/UnityEngine.TerrainPhysicsModule.dll_D5256A5A4268126C.mvfrm
Library/Bee/artifacts/mvdfrm/UnityEngine.TextCoreFontEngineModule.dll_F5C193ABC2CD3077.mvfrm
Library/Bee/artifacts/mvdfrm/UnityEngine.TextCoreTextEngineModule.dll_3DA9CA1D5250E995.mvfrm
Library/Bee/artifacts/mvdfrm/UnityEngine.TextRenderingModule.dll_E5455AB01D7ED359.mvfrm
Library/Bee/artifacts/mvdfrm/UnityEngine.TilemapModule.dll_C9439E06FFE53758.mvfrm
Library/Bee/artifacts/mvdfrm/UnityEngine.TLSModule.dll_6A511A143C149DF5.mvfrm
Library/Bee/artifacts/mvdfrm/UnityEngine.UIElementsModule.dll_D1244BFEFBBEF1B5.mvfrm
Library/Bee/artifacts/mvdfrm/UnityEngine.UIElementsNativeModule.dll_1F1D2A65ED4F83EC.mvfrm
Library/Bee/artifacts/mvdfrm/UnityEngine.UIModule.dll_CC1EC94B7614462E.mvfrm
Library/Bee/artifacts/mvdfrm/UnityEngine.UmbraModule.dll_7069B45F62DE5C03.mvfrm
Library/Bee/artifacts/mvdfrm/UnityEngine.UNETModule.dll_C7E478E886260492.mvfrm
Library/Bee/artifacts/mvdfrm/UnityEngine.UnityAnalyticsCommonModule.dll_6DE49185EDCA9B36.mvfrm
Library/Bee/artifacts/mvdfrm/UnityEngine.UnityAnalyticsModule.dll_F44A3250D54C69DB.mvfrm
Library/Bee/artifacts/mvdfrm/UnityEngine.UnityConnectModule.dll_60F167A2C1724A4F.mvfrm
Library/Bee/artifacts/mvdfrm/UnityEngine.UnityCurlModule.dll_CD9E4081286E390B.mvfrm
Library/Bee/artifacts/mvdfrm/UnityEngine.UnityTestProtocolModule.dll_D09A6528089BD2F9.mvfrm
Library/Bee/artifacts/mvdfrm/UnityEngine.UnityWebRequestAssetBundleModule.dll_0CB6B57A2927F8EC.mvfrm
Library/Bee/artifacts/mvdfrm/UnityEngine.UnityWebRequestAudioModule.dll_4AA228205A4CC770.mvfrm
Library/Bee/artifacts/mvdfrm/UnityEngine.UnityWebRequestModule.dll_3FD7D63BB7C98F2A.mvfrm
Library/Bee/artifacts/mvdfrm/UnityEngine.UnityWebRequestTextureModule.dll_1B4002E31C83AB45.mvfrm
Library/Bee/artifacts/mvdfrm/UnityEngine.UnityWebRequestWWWModule.dll_086C0F794210A601.mvfrm
Library/Bee/artifacts/mvdfrm/UnityEngine.VehiclesModule.dll_2ED77B66E477AB11.mvfrm
Library/Bee/artifacts/mvdfrm/UnityEngine.VFXModule.dll_EB2FB28312820762.mvfrm
Library/Bee/artifacts/mvdfrm/UnityEngine.VideoModule.dll_1A9E8CB19849CC35.mvfrm
Library/Bee/artifacts/mvdfrm/UnityEngine.VirtualTexturingModule.dll_43A9DED4C5FE0477.mvfrm
Library/Bee/artifacts/mvdfrm/UnityEngine.VRModule.dll_1EF0EFD117CECBA6.mvfrm
Library/Bee/artifacts/mvdfrm/UnityEngine.WindModule.dll_AB8D0C27CA4D8D82.mvfrm
Library/Bee/artifacts/mvdfrm/UnityEngine.XRModule.dll_51AFB2D5A1091904.mvfrm
Library/Bee/artifacts/mvdfrm/UnityEditor.OSXStandalone.Extensions.dll_A628C4FC65F9973D.mvfrm
Library/Bee/artifacts/mvdfrm/Unity.Analytics.StandardEvents.dll_031876191663AAC0.mvfrm
Library/Bee/artifacts/mvdfrm/Unity.Analytics.Editor.dll_80500DEADF839D24.mvfrm
Library/Bee/artifacts/mvdfrm/Unity.Analytics.Tracker.dll_DEA235C136944A4D.mvfrm
Library/Bee/artifacts/mvdfrm/Unity.Plastic.Antlr3.Runtime.dll_CFC90BD8999C89D9.mvfrm
Library/Bee/artifacts/mvdfrm/Unity.Plastic.Newtonsoft.Json.dll_FEE5F984C03E754C.mvfrm